{
	"num_nodes" : 3,
	"tree" : 
	{
		"geometryfun" : 
		{
			"id" : 0,
			"radius" : 1.0,
			"type" : "rat::dm::dfcircle",
			"xc" : 0.0,
			"yc" : 0.0
		},
		"h0" : 0.10000000000000001,
		"id" : 2,
		"quad" : true,
		"scalingfun" : 
		{
			"id" : 1,
			"type" : "rat::dm::dfones"
		},
		"type" : "rat::dm::dfdistmesh2d"
	},
	"version" : "0.0.1"
}