{
	"num_nodes" : 6,
	"tree" : 
	{
		"geometryfun" : 
		{
			"distfuna" : 
			{
				"id" : 0,
				"type" : "rat::dm::dfrectangle",
				"x1" : -1.0,
				"x2" : 1.0,
				"y1" : -1.0,
				"y2" : 1.0
			},
			"distfunb" : 
			{
				"id" : 1,
				"radius" : 0.5,
				"type" : "rat::dm::dfcircle",
				"xc" : 0.0,
				"yc" : 0.0
			},
			"id" : 2,
			"type" : "rat::dm::dfdiff"
		},
		"h0" : 0.050000000000000003,
		"id" : 5,
		"quad" : true,
		"scalingfun" : 
		{
			"distfun" : 
			{
				"id" : 3,
				"radius" : 0.5,
				"type" : "rat::dm::dfcircle",
				"xc" : 0.0,
				"yc" : 0.0
			},
			"id" : 4,
			"max" : 1e99,
			"offset" : 0.050000000000000003,
			"scale" : 0.29999999999999999,
			"type" : "rat::dm::dfscale"
		},
		"type" : "rat::dm::dfdistmesh2d"
	},
	"version" : "0.0.1"
}